A STAR SEARCH
====================================

Initial state
 8 6 7
 2 5 4
 3 0 1

Uma solucao foi encontrada!

SOLUTION
RIGHT
 8 6 7
 2 5 4
 0 3 1

DOWN
 8 6 7
 0 5 4
 2 3 1

LEFT
 8 6 7
 5 0 4
 2 3 1

DOWN
 8 0 7
 5 6 4
 2 3 1

RIGHT
 0 8 7
 5 6 4
 2 3 1

UP
 5 8 7
 0 6 4
 2 3 1

LEFT
 5 8 7
 6 0 4
 2 3 1

UP
 5 8 7
 6 3 4
 2 0 1

LEFT
 5 8 7
 6 3 4
 2 1 0

DOWN
 5 8 7
 6 3 0
 2 1 4

RIGHT
 5 8 7
 6 0 3
 2 1 4

DOWN
 5 0 7
 6 8 3
 2 1 4

LEFT
 5 7 0
 6 8 3
 2 1 4

UP
 5 7 3
 6 8 0
 2 1 4

RIGHT
 5 7 3
 6 0 8
 2 1 4

RIGHT
 5 7 3
 0 6 8
 2 1 4

UP
 5 7 3
 2 6 8
 0 1 4

LEFT
 5 7 3
 2 6 8
 1 0 4

LEFT
 5 7 3
 2 6 8
 1 4 0

DOWN
 5 7 3
 2 6 0
 1 4 8

RIGHT
 5 7 3
 2 0 6
 1 4 8

DOWN
 5 0 3
 2 7 6
 1 4 8

RIGHT
 0 5 3
 2 7 6
 1 4 8

UP
 2 5 3
 0 7 6
 1 4 8

UP
 2 5 3
 1 7 6
 0 4 8

LEFT
 2 5 3
 1 7 6
 4 0 8

DOWN
 2 5 3
 1 0 6
 4 7 8

DOWN
 2 0 3
 1 5 6
 4 7 8

RIGHT
 0 2 3
 1 5 6
 4 7 8

UP
 1 2 3
 0 5 6
 4 7 8

UP
 1 2 3
 4 5 6
 0 7 8

LEFT
 1 2 3
 4 5 6
 7 0 8

LEFT
 1 2 3
 4 5 6
 7 8 0


Tempo total de execucao: 0.398369997739792 segundos
Profundidade da busca: 33
Quantidade de nos expandidos:13671


