HILL CLIMBING SEARCH
====================================

Initial state
 8 6 7
 2 5 4
 3 0 1


SOLUTION
DOWN
 8 6 7
 2 0 4
 3 5 1

DOWN
 8 0 7
 2 6 4
 3 5 1

LEFT
 8 7 0
 2 6 4
 3 5 1

UP
 8 7 4
 2 6 0
 3 5 1

RIGHT
 8 7 4
 2 0 6
 3 5 1

DOWN
 8 0 4
 2 7 6
 3 5 1

RIGHT
 0 8 4
 2 7 6
 3 5 1

UP
 2 8 4
 0 7 6
 3 5 1

LEFT
 2 8 4
 7 0 6
 3 5 1

UP
 2 8 4
 7 5 6
 3 0 1

RIGHT
 2 8 4
 7 5 6
 0 3 1

DOWN
 2 8 4
 0 5 6
 7 3 1

DOWN
 0 8 4
 2 5 6
 7 3 1

LEFT
 8 0 4
 2 5 6
 7 3 1

LEFT
 8 4 0
 2 5 6
 7 3 1

UP
 8 4 6
 2 5 0
 7 3 1

RIGHT
 8 4 6
 2 0 5
 7 3 1

DOWN
 8 0 6
 2 4 5
 7 3 1

RIGHT
 0 8 6
 2 4 5
 7 3 1

UP
 2 8 6
 0 4 5
 7 3 1

LEFT
 2 8 6
 4 0 5
 7 3 1

LEFT
 2 8 6
 4 5 0
 7 3 1

DOWN
 2 8 0
 4 5 6
 7 3 1

RIGHT
 2 0 8
 4 5 6
 7 3 1

UP
 2 5 8
 4 0 6
 7 3 1

UP
 2 5 8
 4 3 6
 7 0 1

LEFT
 2 5 8
 4 3 6
 7 1 0

DOWN
 2 5 8
 4 3 0
 7 1 6

RIGHT
 2 5 8
 4 0 3
 7 1 6

DOWN
 2 0 8
 4 5 3
 7 1 6

LEFT
 2 8 0
 4 5 3
 7 1 6

UP
 2 8 3
 4 5 0
 7 1 6

UP
 2 8 3
 4 5 6
 7 1 0

RIGHT
 2 8 3
 4 5 6
 7 0 1

DOWN
 2 8 3
 4 0 6
 7 5 1

DOWN
 2 0 3
 4 8 6
 7 5 1

RIGHT
 0 2 3
 4 8 6
 7 5 1

UP
 4 2 3
 0 8 6
 7 5 1

LEFT
 4 2 3
 8 0 6
 7 5 1

UP
 4 2 3
 8 5 6
 7 0 1

RIGHT
 4 2 3
 8 5 6
 0 7 1

DOWN
 4 2 3
 0 5 6
 8 7 1

DOWN
 0 2 3
 4 5 6
 8 7 1

LEFT
 2 0 3
 4 5 6
 8 7 1

UP
 2 5 3
 4 0 6
 8 7 1

UP
 2 5 3
 4 7 6
 8 0 1

RIGHT
 2 5 3
 4 7 6
 0 8 1

DOWN
 2 5 3
 0 7 6
 4 8 1

LEFT
 2 5 3
 7 0 6
 4 8 1

DOWN
 2 0 3
 7 5 6
 4 8 1

RIGHT
 0 2 3
 7 5 6
 4 8 1

UP
 7 2 3
 0 5 6
 4 8 1

UP
 7 2 3
 4 5 6
 0 8 1

LEFT
 7 2 3
 4 5 6
 8 0 1

LEFT
 7 2 3
 4 5 6
 8 1 0

DOWN
 7 2 3
 4 5 0
 8 1 6

RIGHT
 7 2 3
 4 0 5
 8 1 6

UP
 7 2 3
 4 1 5
 8 0 6

RIGHT
 7 2 3
 4 1 5
 0 8 6

DOWN
 7 2 3
 0 1 5
 4 8 6

LEFT
 7 2 3
 1 0 5
 4 8 6

LEFT
 7 2 3
 1 5 0
 4 8 6

UP
 7 2 3
 1 5 6
 4 8 0

RIGHT
 7 2 3
 1 5 6
 4 0 8

RIGHT
 7 2 3
 1 5 6
 0 4 8

DOWN
 7 2 3
 0 5 6
 1 4 8

DOWN
 0 2 3
 7 5 6
 1 4 8

LEFT
 2 0 3
 7 5 6
 1 4 8

UP
 2 5 3
 7 0 6
 1 4 8

UP
 2 5 3
 7 4 6
 1 0 8

RIGHT
 2 5 3
 7 4 6
 0 1 8

DOWN
 2 5 3
 0 4 6
 7 1 8

LEFT
 2 5 3
 4 0 6
 7 1 8

UP
 2 5 3
 4 1 6
 7 0 8

RIGHT
 2 5 3
 4 1 6
 0 7 8

DOWN
 2 5 3
 0 1 6
 4 7 8

LEFT
 2 5 3
 1 0 6
 4 7 8

DOWN
 2 0 3
 1 5 6
 4 7 8

RIGHT
 0 2 3
 1 5 6
 4 7 8

UP
 1 2 3
 0 5 6
 4 7 8

UP
 1 2 3
 4 5 6
 0 7 8

LEFT
 1 2 3
 4 5 6
 7 0 8

LEFT
 1 2 3
 4 5 6
 7 8 0


Tempo total de execucao: 2.37814903259277 segundos
Profundidade da busca: 83
Quantidade de nos expandidos:3320
