HILL CLIMBING SEARCH
====================================

Initial state
 8 6 7
 2 5 4
 3 0 1


SOLUTION
DOWN
 8 6 7
 2 0 4
 3 5 1

RIGHT
 8 6 7
 0 2 4
 3 5 1

DOWN
 0 6 7
 8 2 4
 3 5 1

LEFT
 6 0 7
 8 2 4
 3 5 1

UP
 6 2 7
 8 0 4
 3 5 1

UP
 6 2 7
 8 5 4
 3 0 1

RIGHT
 6 2 7
 8 5 4
 0 3 1

DOWN
 6 2 7
 0 5 4
 8 3 1

LEFT
 6 2 7
 5 0 4
 8 3 1

LEFT
 6 2 7
 5 4 0
 8 3 1

UP
 6 2 7
 5 4 1
 8 3 0

RIGHT
 6 2 7
 5 4 1
 8 0 3

RIGHT
 6 2 7
 5 4 1
 0 8 3

DOWN
 6 2 7
 0 4 1
 5 8 3

DOWN
 0 2 7
 6 4 1
 5 8 3

LEFT
 2 0 7
 6 4 1
 5 8 3

LEFT
 2 7 0
 6 4 1
 5 8 3

UP
 2 7 1
 6 4 0
 5 8 3

RIGHT
 2 7 1
 6 0 4
 5 8 3

DOWN
 2 0 1
 6 7 4
 5 8 3

RIGHT
 0 2 1
 6 7 4
 5 8 3

UP
 6 2 1
 0 7 4
 5 8 3

UP
 6 2 1
 5 7 4
 0 8 3

LEFT
 6 2 1
 5 7 4
 8 0 3

DOWN
 6 2 1
 5 0 4
 8 7 3

LEFT
 6 2 1
 5 4 0
 8 7 3

UP
 6 2 1
 5 4 3
 8 7 0

RIGHT
 6 2 1
 5 4 3
 8 0 7

RIGHT
 6 2 1
 5 4 3
 0 8 7

DOWN
 6 2 1
 0 4 3
 5 8 7

DOWN
 0 2 1
 6 4 3
 5 8 7

LEFT
 2 0 1
 6 4 3
 5 8 7

LEFT
 2 1 0
 6 4 3
 5 8 7

UP
 2 1 3
 6 4 0
 5 8 7

RIGHT
 2 1 3
 6 0 4
 5 8 7

RIGHT
 2 1 3
 0 6 4
 5 8 7

UP
 2 1 3
 5 6 4
 0 8 7

LEFT
 2 1 3
 5 6 4
 8 0 7

LEFT
 2 1 3
 5 6 4
 8 7 0

DOWN
 2 1 3
 5 6 0
 8 7 4

RIGHT
 2 1 3
 5 0 6
 8 7 4

UP
 2 1 3
 5 7 6
 8 0 4

RIGHT
 2 1 3
 5 7 6
 0 8 4

DOWN
 2 1 3
 0 7 6
 5 8 4

LEFT
 2 1 3
 7 0 6
 5 8 4

DOWN
 2 0 3
 7 1 6
 5 8 4

RIGHT
 0 2 3
 7 1 6
 5 8 4

UP
 7 2 3
 0 1 6
 5 8 4

UP
 7 2 3
 5 1 6
 0 8 4

LEFT
 7 2 3
 5 1 6
 8 0 4

DOWN
 7 2 3
 5 0 6
 8 1 4

RIGHT
 7 2 3
 0 5 6
 8 1 4

DOWN
 0 2 3
 7 5 6
 8 1 4

LEFT
 2 0 3
 7 5 6
 8 1 4

UP
 2 5 3
 7 0 6
 8 1 4

UP
 2 5 3
 7 1 6
 8 0 4

RIGHT
 2 5 3
 7 1 6
 0 8 4

DOWN
 2 5 3
 0 1 6
 7 8 4

LEFT
 2 5 3
 1 0 6
 7 8 4

DOWN
 2 0 3
 1 5 6
 7 8 4

RIGHT
 0 2 3
 1 5 6
 7 8 4

UP
 1 2 3
 0 5 6
 7 8 4

UP
 1 2 3
 7 5 6
 0 8 4

LEFT
 1 2 3
 7 5 6
 8 0 4

LEFT
 1 2 3
 7 5 6
 8 4 0

DOWN
 1 2 3
 7 5 0
 8 4 6

RIGHT
 1 2 3
 7 0 5
 8 4 6

UP
 1 2 3
 7 4 5
 8 0 6

RIGHT
 1 2 3
 7 4 5
 0 8 6

DOWN
 1 2 3
 0 4 5
 7 8 6

LEFT
 1 2 3
 4 0 5
 7 8 6

LEFT
 1 2 3
 4 5 0
 7 8 6

UP
 1 2 3
 4 5 6
 7 8 0


Tempo total de execucao: 0.772445976734161 segundos
Profundidade da busca: 73
Quantidade de nos expandidos:1730

