OK! Agora vamos resolver o problema!

ITERATIVE DEEPENING SEARCH
====================================

Initial state
 8 6 7
 2 5 4
 3 0 1


SOLUTION
LEFT
 8 6 7
 2 5 4
 3 1 0

DOWN
 8 6 7
 2 5 0
 3 1 4

RIGHT
 8 6 7
 2 0 5
 3 1 4

RIGHT
 8 6 7
 0 2 5
 3 1 4

UP
 8 6 7
 3 2 5
 0 1 4

LEFT
 8 6 7
 3 2 5
 1 0 4

LEFT
 8 6 7
 3 2 5
 1 4 0

DOWN
 8 6 7
 3 2 0
 1 4 5

DOWN
 8 6 0
 3 2 7
 1 4 5

RIGHT
 8 0 6
 3 2 7
 1 4 5

RIGHT
 0 8 6
 3 2 7
 1 4 5

UP
 3 8 6
 0 2 7
 1 4 5

LEFT
 3 8 6
 2 0 7
 1 4 5

DOWN
 3 0 6
 2 8 7
 1 4 5

RIGHT
 0 3 6
 2 8 7
 1 4 5

UP
 2 3 6
 0 8 7
 1 4 5

UP
 2 3 6
 1 8 7
 0 4 5

LEFT
 2 3 6
 1 8 7
 4 0 5

LEFT
 2 3 6
 1 8 7
 4 5 0

DOWN
 2 3 6
 1 8 0
 4 5 7

RIGHT
 2 3 6
 1 0 8
 4 5 7

UP
 2 3 6
 1 5 8
 4 0 7

LEFT
 2 3 6
 1 5 8
 4 7 0

DOWN
 2 3 6
 1 5 0
 4 7 8

DOWN
 2 3 0
 1 5 6
 4 7 8

RIGHT
 2 0 3
 1 5 6
 4 7 8

RIGHT
 0 2 3
 1 5 6
 4 7 8

UP
 1 2 3
 0 5 6
 4 7 8

UP
 1 2 3
 4 5 6
 0 7 8

LEFT
 1 2 3
 4 5 6
 7 0 8

LEFT
 1 2 3
 4 5 6
 7 8 0


Tempo total de execucao: 1196.89208984375 segundos
Profundidade da busca 31
Quantidade de nos expandidos:82324675
====================================



